{
    "lun_rate_strip": {
        "color": 821, 
        "status": "alive", 
        "pos": [
            0.6786310517529216, 
            0.99, 
            0.3265060240963855, 
            0.6506024096385542
        ]
    }, 
    "laser_power": {
        "color": 422, 
        "status": "alive", 
        "pos": [
            0.3539232053422371, 
            0.674457429048414, 
            0.01, 
            0.3144578313253012
        ]
    }, 
    "stare_rate": {
        "color": 17, 
        "status": "alive", 
        "pos": [
            0.6769616026711186, 
            0.99, 
            0.01, 
            0.31566265060240967
        ]
    }, 
    "raw_lun_hist": {
        "color": 821, 
        "status": "alive", 
        "pos": [
            0.01, 
            0.3479427549194991, 
            0.011042944785276074, 
            0.3165644171779141
        ]
    }, 
    "raw_fid_hist": {
        "color": 393, 
        "status": "alive", 
        "pos": [
            0.01, 
            0.3475991649269311, 
            0.660431654676259, 
            0.99
        ]
    }, 
    "lun_strip": {
        "color": 821, 
        "status": "alive", 
        "pos": [
            0.3539232053422371, 
            0.674457429048414, 
            0.3253012048192771, 
            0.6493975903614457
        ]
    }, 
    "lun_hist": {
        "color": 821, 
        "status": "alive", 
        "pos": [
            0.3539232053422371, 
            0.674457429048414, 
            0.6590361445783133, 
            0.99
        ]
    }, 
    "lun_hitgrid": {
        "color": 625, 
        "status": "alive", 
        "pos": [
            0.05636743215031315, 
            0.2964509394572025, 
            0.36115107913669064, 
            0.618705035971223
        ]
    }, 
    "fid_hist": {
        "color": 393, 
        "status": "alive", 
        "pos": [
            0.679465776293823, 
            0.99, 
            0.6602409638554216, 
            0.99
        ]
    }
}